﻿{
  "profiles": {
    "Otus.Teaching.Integration.Microservices.CreditApplicationConsumer.Host": {
      "commandName": "Project",
      "environmentVariables": {
        "DOTNET_ENVIRONMENT": "Development"
      }
    }
  }
}
